Breaking Wordle | C. Jake Barlow – C. Jake Barlow
…
2. What Words?

The next part is also pretty simple; we want to cut our list of all words down to just those that use the letters in our top 10. We also want to avoid any duplicates so we can cover off all of the most common letters in our first two guesses.

good_words = words %>%
  rowwise() %>%
  mutate(sum = sum(across(all_of(letters)))) %>% # sum of good letters
  ungroup() %>%
  filter(sum == 5) %>% # drop those without a 5
  filter(across(all_of(letters), ~ .x %in% c(1, 0)))  %>% # drop those with more than one of each letter
  select(word)

good_words

# A tibble: 407 × 1
   word 
   <chr>
 1 aeons
 2 aeros
 3 aesir
 4 airns
 5 airts
 6 aitus
 7 aline
 8 alist
 9 aloes
10 aloin
# ℹ 397 more rows
…
